Analysis/powered_spin_test/oscilloscope_data/high_speed/NewFile1.csv

X,CH1,Start,Increment,
Sequence,Volt,9.999998e-01,5.000000e-04
0,2.16e+01,
1,2.16e+01,
2,2.12e+01,
3,2.12e+01,
4,2.08e+01,
5,2.04e+01,
6,2.04e+01,
7,2.00e+01,
8,1.96e+01,
9,1.92e+01,
10,1.88e+01,
11,1.84e+01,
12,1.84e+01,
13,1.76e+01,
14,1.72e+01,
15,1.68e+01,
16,1.64e+01,
17,1.60e+01,
18,1.56e+01,
19,1.52e+01,
20,1.48e+01,
21,1.44e+01,
22,1.40e+01,
23,1.36e+01,
24,1.24e+01,
25,1.20e+01,
26,1.12e+01,
27,1.12e+01,
28,1.04e+01,
29,1.00e+01,
30,9.20e+00,
31,8.80e+00,
32,8.40e+00,
33,7.60e+00,
34,7.20e+00,
35,6.40e+00,
36,6.00e+00,
37,5.20e+00,
38,4.80e+00,
39,4.40e+00,
40,3.60e+00,
41,3.20e+00,
42,2.40e+00,
43,1.60e+00,
44,8.00e-01,
45,4.00e-01,
46,-4.00e-01,
47,-8.00e-01,
48,-1.60e+00,
49,-2.00e+00,
50,-2.80e+00,
51,-3.20e+00,
52,-4.00e+00,
53,-4.40e+00,
54,-5.20e+00,
55,-5.60e+00,
56,-6.40e+00,
57,-6.80e+00,
58,-7.60e+00,
59,-8.00e+00,
60,-8.80e+00,
61,-9.60e+00,
62,-1.00e+01,
63,-1.04e+01,
64,-1.12e+01,
65,-1.16e+01,
66,-1.24e+01,
67,-1.24e+01,
68,-1.32e+01,
69,-1.36e+01,
70,-1.44e+01,
71,-1.44e+01,
72,-1.52e+01,
73,-1.56e+01,
74,-1.60e+01,
75,-1.64e+01,
76,-1.68e+01,
77,-1.72e+01,
78,-1.76e+01,
79,-1.80e+01,
80,-1.84e+01,
81,-1.84e+01,
82,-1.96e+01,
83,-1.96e+01,
84,-2.00e+01,
85,-2.04e+01,
86,-2.08e+01,
87,-2.08e+01,
88,-2.12e+01,
89,-2.16e+01,
90,-2.16e+01,
91,-2.16e+01,
92,-2.20e+01,
93,-2.24e+01,
94,-2.24e+01,
95,-2.28e+01,
96,-2.28e+01,
97,-2.28e+01,
98,-2.32e+01,
99,-2.32e+01,
100,-2.32e+01,
101,-2.32e+01,
102,-2.32e+01,
103,-2.32e+01,
104,-2.36e+01,
105,-2.36e+01,
106,-2.32e+01,
107,-2.36e+01,
108,-2.36e+01,
109,-2.32e+01,
110,-2.32e+01,
111,-2.32e+01,
112,-2.28e+01,
113,-2.28e+01,
114,-2.28e+01,
115,-2.28e+01,
116,-2.28e+01,
117,-2.24e+01,
118,-2.20e+01,
119,-2.20e+01,
120,-2.16e+01,
121,-2.12e+01,
122,-2.12e+01,
123,-2.08e+01,
124,-2.04e+01,
125,-1.96e+01,
126,-2.00e+01,
127,-1.96e+01,
128,-1.88e+01,
129,-1.84e+01,
130,-1.84e+01,
131,-1.80e+01,
132,-1.76e+01,
133,-1.72e+01,
134,-1.68e+01,
135,-1.64e+01,
136,-1.60e+01,
137,-1.56e+01,
138,-1.52e+01,
139,-1.44e+01,
140,-1.40e+01,
141,-1.36e+01,
142,-1.32e+01,
143,-1.56e+01,
144,-1.24e+01,
145,-1.16e+01,
146,-1.12e+01,
147,-1.04e+01,
148,-1.00e+01,
149,-1.00e+01,
150,-9.20e+00,
151,-8.80e+00,
152,-7.60e+00,
153,-7.20e+00,
154,-6.40e+00,
155,-6.00e+00,
156,-5.20e+00,
157,-4.80e+00,
158,-4.40e+00,
159,-4.00e+00,
160,-3.20e+00,
161,-2.80e+00,
162,-2.00e+00,
163,-1.20e+00,
164,-8.00e-01,
165,-4.00e-01,
166,4.00e-01,
167,8.00e-01,
168,1.60e+00,
169,2.40e+00,
170,3.20e+00,
171,3.60e+00,
172,4.40e+00,
173,4.80e+00,
174,5.20e+00,
175,6.00e+00,
176,6.40e+00,
177,6.80e+00,
178,7.60e+00,
179,8.00e+00,
180,8.80e+00,
181,9.20e+00,
182,9.60e+00,
183,1.04e+01,
184,1.08e+01,
185,1.12e+01,
186,1.16e+01,
187,1.24e+01,
188,1.32e+01,
189,1.36e+01,
190,1.40e+01,
191,1.48e+01,
192,1.48e+01,
193,1.56e+01,
194,1.60e+01,
195,1.64e+01,
196,1.68e+01,
197,1.72e+01,
198,1.76e+01,
199,1.80e+01,
200,1.84e+01,
201,1.88e+01,
202,1.88e+01,
203,1.92e+01,
204,1.96e+01,
205,2.00e+01,
206,2.04e+01,
207,2.04e+01,
208,2.08e+01,
209,2.08e+01,
210,2.12e+01,
211,2.16e+01,
212,2.16e+01,
213,2.16e+01,
214,2.20e+01,
215,2.20e+01,
216,2.24e+01,
217,2.24e+01,
218,2.24e+01,
219,2.24e+01,
220,2.28e+01,
221,2.00e+01,
222,2.28e+01,
223,2.28e+01,
224,2.28e+01,
225,2.28e+01,
226,2.28e+01,
227,2.28e+01,
228,2.28e+01,
229,2.28e+01,
230,2.28e+01,
231,2.28e+01,
232,2.24e+01,
233,2.24e+01,
234,2.24e+01,
235,2.20e+01,
236,2.20e+01,
237,2.16e+01,
238,2.16e+01,
239,2.12e+01,
240,2.12e+01,
241,2.08e+01,
242,2.08e+01,
243,2.04e+01,
244,2.00e+01,
245,1.96e+01,
246,1.96e+01,
247,1.92e+01,
248,1.88e+01,
249,1.84e+01,
250,1.80e+01,
251,1.76e+01,
252,1.72e+01,
253,1.68e+01,
254,1.64e+01,
255,1.60e+01,
256,1.56e+01,
257,1.52e+01,
258,1.48e+01,
259,1.44e+01,
260,1.40e+01,
261,1.36e+01,
262,1.24e+01,
263,1.20e+01,
264,1.16e+01,
265,1.12e+01,
266,1.04e+01,
267,1.00e+01,
268,9.60e+00,
269,8.80e+00,
270,8.40e+00,
271,8.00e+00,
272,7.20e+00,
273,6.80e+00,
274,6.40e+00,
275,5.60e+00,
276,5.20e+00,
277,4.40e+00,
278,3.60e+00,
279,3.20e+00,
280,2.80e+00,
281,5.20e+00,
282,1.20e+00,
283,8.00e-01,
284,-8.70e-05,
285,-8.00e-01,
286,-1.20e+00,
287,-2.00e+00,
288,-2.40e+00,
289,-3.20e+00,
290,-3.60e+00,
291,-4.00e+00,
292,-4.80e+00,
293,-5.20e+00,
294,-6.00e+00,
295,-6.40e+00,
296,-7.20e+00,
297,-7.60e+00,
298,-8.00e+00,
299,-8.80e+00,
300,-9.60e+00,
301,-1.04e+01,
302,-1.08e+01,
303,-1.12e+01,
304,-1.16e+01,
305,-1.24e+01,
306,-1.28e+01,
307,-1.32e+01,
308,-1.36e+01,
309,-1.44e+01,
310,-1.48e+01,
311,-1.52e+01,
312,-1.56e+01,
313,-1.60e+01,
314,-1.64e+01,
315,-1.68e+01,
316,-1.72e+01,
317,-1.76e+01,
318,-1.80e+01,
319,-1.84e+01,
320,-1.88e+01,
321,-1.96e+01,
322,-2.00e+01,
323,-2.00e+01,
324,-2.08e+01,
325,-2.08e+01,
326,-2.12e+01,
327,-2.16e+01,
328,-2.16e+01,
329,-2.20e+01,
330,-2.20e+01,
331,-2.24e+01,
332,-2.24e+01,
333,-2.28e+01,
334,-2.28e+01,
335,-2.32e+01,
336,-2.32e+01,
337,-2.32e+01,
338,-2.32e+01,
339,-2.32e+01,
340,-2.36e+01,
341,-2.36e+01,
342,-2.36e+01,
343,-2.40e+01,
344,-2.36e+01,
345,-2.36e+01,
346,-2.36e+01,
347,-2.32e+01,
348,-2.32e+01,
349,-2.32e+01,
350,-2.32e+01,
351,-2.32e+01,
352,-2.28e+01,
353,-2.28e+01,
354,-2.28e+01,
355,-2.28e+01,
356,-2.24e+01,
357,-2.20e+01,
358,-2.16e+01,
359,-2.16e+01,
360,-2.16e+01,
361,-2.12e+01,
362,-2.08e+01,
363,-2.08e+01,
364,-2.04e+01,
365,-2.00e+01,
366,-2.00e+01,
367,-1.88e+01,
368,-1.84e+01,
369,-1.80e+01,
370,-1.76e+01,
371,-1.72e+01,
372,-1.68e+01,
373,-1.64e+01,
374,-1.64e+01,
375,-1.56e+01,
376,-1.52e+01,
377,-1.48e+01,
378,-1.44e+01,
379,-1.36e+01,
380,-1.32e+01,
381,-1.28e+01,
382,-1.24e+01,
383,-1.20e+01,
384,-1.12e+01,
385,-1.08e+01,
386,-1.00e+01,
387,-9.60e+00,
388,-9.20e+00,
389,-8.00e+00,
390,-7.60e+00,
391,-7.20e+00,
392,-6.40e+00,
393,-6.00e+00,
394,-5.20e+00,
395,-4.80e+00,
396,-4.00e+00,
397,-3.60e+00,
398,-3.20e+00,
399,-2.40e+00,
400,-1.60e+00,
401,-1.20e+00,
402,-4.00e-01,
403,-4.00e-01,
404,8.00e-01,
405,1.20e+00,
406,2.40e+00,
407,2.80e+00,
408,3.20e+00,
409,4.00e+00,
410,4.40e+00,
411,5.20e+00,
412,5.60e+00,
413,6.40e+00,
414,6.80e+00,
415,7.60e+00,
416,8.00e+00,
417,8.40e+00,
418,9.20e+00,
419,9.60e+00,
420,1.00e+01,
421,1.00e+01,
422,1.12e+01,
423,1.20e+01,
424,1.24e+01,
425,1.32e+01,
426,1.36e+01,
427,1.44e+01,
428,1.48e+01,
429,1.52e+01,
430,1.56e+01,
431,1.60e+01,
432,1.64e+01,
433,1.68e+01,
434,1.72e+01,
435,1.76e+01,
436,1.80e+01,
437,1.84e+01,
438,1.88e+01,
439,1.92e+01,
440,1.96e+01,
441,1.96e+01,
442,2.00e+01,
443,2.04e+01,
444,2.08e+01,
445,2.08e+01,
446,2.12e+01,
447,2.16e+01,
448,2.16e+01,
449,2.20e+01,
450,2.20e+01,
451,2.24e+01,
452,2.24e+01,
453,2.24e+01,
454,2.28e+01,
455,2.28e+01,
456,2.28e+01,
457,2.28e+01,
458,2.32e+01,
459,2.32e+01,
460,2.32e+01,
461,2.32e+01,
462,2.32e+01,
463,2.32e+01,
464,2.32e+01,
465,2.48e+01,
466,2.28e+01,
467,2.28e+01,
468,2.28e+01,
469,2.28e+01,
470,2.24e+01,
471,2.24e+01,
472,2.20e+01,
473,2.20e+01,
474,2.20e+01,
475,2.16e+01,
476,2.12e+01,
477,2.12e+01,
478,2.08e+01,
479,2.08e+01,
480,2.04e+01,
481,2.08e+01,
482,1.96e+01,
483,1.96e+01,
484,1.88e+01,
485,1.88e+01,
486,1.84e+01,
487,1.80e+01,
488,1.76e+01,
489,1.72e+01,
490,1.68e+01,
491,1.64e+01,
492,1.60e+01,
493,1.56e+01,
494,1.52e+01,
495,1.48e+01,
496,1.40e+01,
497,1.36e+01,
498,1.32e+01,
499,1.24e+01,
500,1.20e+01,
501,1.12e+01,
502,1.08e+01,
503,1.04e+01,
504,9.60e+00,
505,9.20e+00,
506,8.80e+00,
507,8.00e+00,
508,7.20e+00,
509,7.20e+00,
510,6.40e+00,
511,6.00e+00,
512,5.20e+00,
513,4.80e+00,
514,4.00e+00,
515,3.60e+00,
516,2.80e+00,
517,2.40e+00,
518,1.20e+00,
519,8.00e-01,
520,4.00e-01,
521,-4.00e-01,
522,-1.20e+00,
523,-1.60e+00,
524,-2.00e+00,
525,-2.80e+00,
526,-3.20e+00,
527,-4.00e+00,
528,-4.40e+00,
529,-5.20e+00,
530,-5.60e+00,
531,-6.40e+00,
532,-6.80e+00,
533,-7.60e+00,
534,-8.00e+00,
535,-8.80e+00,
536,-9.60e+00,
537,-1.00e+01,
538,-1.04e+01,
539,-1.12e+01,
540,-1.16e+01,
541,-1.20e+01,
542,-1.24e+01,
543,-1.32e+01,
544,-1.36e+01,
545,-1.40e+01,
546,-1.44e+01,
547,-1.48e+01,
548,-1.56e+01,
549,-1.60e+01,
550,-1.64e+01,
551,-1.68e+01,
552,-1.72e+01,
553,-1.76e+01,
554,-1.80e+01,
555,-1.84e+01,
556,-1.88e+01,
557,-1.88e+01,
558,-1.96e+01,
559,-2.00e+01,
560,-2.04e+01,
561,-2.08e+01,
562,-2.08e+01,
563,-2.12e+01,
564,-2.16e+01,
565,-2.16e+01,
566,-2.20e+01,
567,-2.20e+01,
568,-2.24e+01,
569,-2.20e+01,
570,-2.24e+01,
571,-2.28e+01,
572,-2.28e+01,
573,-2.32e+01,
574,-2.32e+01,
575,-2.32e+01,
576,-2.32e+01,
577,-2.32e+01,
578,-2.32e+01,
579,-2.32e+01,
580,-2.36e+01,
581,-2.32e+01,
582,-2.36e+01,
583,-2.32e+01,
584,-2.32e+01,
585,-2.32e+01,
586,-2.32e+01,
587,-2.36e+01,
588,-2.28e+01,
589,-2.28e+01,
590,-2.28e+01,
591,-2.24e+01,
592,-2.24e+01,
593,-2.20e+01,
594,-2.20e+01,
595,-2.16e+01,
596,-2.16e+01,
597,-2.12e+01,
598,-2.12e+01,
599,-2.08e+01,
600,-2.04e+01,
601,-2.00e+01,
602,-2.00e+01,
603,-1.88e+01,
604,-1.88e+01,
605,-1.84e+01,
606,-1.80e+01,
607,-1.76e+01,
608,-1.72e+01,
609,-1.68e+01,
610,-1.64e+01,
611,-1.60e+01,
612,-1.56e+01,
613,-1.52e+01,
614,-1.44e+01,
615,-1.40e+01,
616,-1.36e+01,
617,-1.32e+01,
618,-1.28e+01,
619,-1.24e+01,
620,-1.16e+01,
621,-1.16e+01,
622,-1.08e+01,
623,-1.04e+01,
624,-9.60e+00,
625,-9.20e+00,
626,-8.80e+00,
627,-7.60e+00,
628,-7.20e+00,
629,-6.40e+00,
630,-6.00e+00,
631,-4.40e+00,
632,-4.80e+00,
633,-4.40e+00,
634,-4.00e+00,
635,-3.20e+00,
636,-2.40e+00,
637,-8.00e-01,
638,-1.20e+00,
639,-8.00e-01,
640,-4.00e-01,
641,4.00e-01,
642,8.00e-01,
643,1.60e+00,
644,2.80e+00,
645,3.20e+00,
646,3.60e+00,
647,4.40e+00,
648,4.80e+00,
649,5.20e+00,
650,6.00e+00,
651,6.40e+00,
652,7.20e+00,
653,7.60e+00,
654,8.40e+00,
655,8.80e+00,
656,9.20e+00,
657,9.60e+00,
658,1.04e+01,
659,1.08e+01,
660,1.12e+01,
661,1.16e+01,
662,1.24e+01,
663,1.32e+01,
664,1.36e+01,
665,1.44e+01,
666,1.44e+01,
667,1.52e+01,
668,1.56e+01,
669,1.60e+01,
670,1.64e+01,
671,1.68e+01,
672,1.72e+01,
673,1.76e+01,
674,1.80e+01,
675,1.84e+01,
676,1.88e+01,
677,1.92e+01,
678,1.92e+01,
679,1.96e+01,
680,2.00e+01,
681,2.04e+01,
682,2.04e+01,
683,2.08e+01,
684,2.08e+01,
685,2.12e+01,
686,2.16e+01,
687,2.16e+01,
688,2.20e+01,
689,2.20e+01,
690,2.24e+01,
691,2.24e+01,
692,2.24e+01,
693,2.28e+01,
694,2.24e+01,
695,2.28e+01,
696,2.28e+01,
697,2.28e+01,
698,2.28e+01,
699,2.28e+01,
700,2.32e+01,
701,2.28e+01,
702,2.28e+01,
703,2.28e+01,
704,2.28e+01,
705,2.28e+01,
706,2.28e+01,
707,2.28e+01,
708,2.24e+01,
709,2.24e+01,
710,2.20e+01,
711,2.20e+01,
712,2.20e+01,
713,2.16e+01,
714,2.16e+01,
715,2.12e+01,
716,2.08e+01,
717,2.08e+01,
718,2.04e+01,
719,2.04e+01,
720,2.00e+01,
721,1.96e+01,
722,1.92e+01,
723,1.88e+01,
724,1.84e+01,
725,1.80e+01,
726,1.76e+01,
727,1.76e+01,
728,1.68e+01,
729,1.68e+01,
730,1.60e+01,
731,1.56e+01,
732,1.52e+01,
733,1.48e+01,
734,1.44e+01,
735,1.40e+01,
736,1.36e+01,
737,1.24e+01,
738,1.20e+01,
739,1.16e+01,
740,1.12e+01,
741,1.08e+01,
742,1.00e+01,
743,9.60e+00,
744,8.80e+00,
745,8.40e+00,
746,8.00e+00,
747,7.20e+00,
748,6.80e+00,
749,6.40e+00,
750,5.60e+00,
751,4.80e+00,
752,4.40e+00,
753,4.00e+00,
754,3.20e+00,
755,2.80e+00,
756,1.60e+00,
757,1.20e+00,
758,4.00e-01,
759,-1.60e+00,
760,-8.00e-01,
761,-1.20e+00,
762,-2.00e+00,
763,-2.40e+00,
764,-3.20e+00,
765,-3.60e+00,
766,-4.40e+00,
767,-4.80e+00,
768,-5.60e+00,
769,-6.00e+00,
770,-6.40e+00,
771,-7.20e+00,
772,-8.00e+00,
773,-8.80e+00,
774,-9.20e+00,
775,-1.00e+01,
776,-1.04e+01,
777,-1.08e+01,
778,-1.16e+01,
779,-1.20e+01,
780,-1.24e+01,
781,-1.32e+01,
782,-1.36e+01,
783,-1.40e+01,
784,-1.44e+01,
785,-1.48e+01,
786,-1.56e+01,
787,-1.60e+01,
788,-1.64e+01,
789,-1.68e+01,
790,-1.72e+01,
791,-1.76e+01,
792,-1.80e+01,
793,-1.84e+01,
794,-1.88e+01,
795,-1.96e+01,
796,-2.00e+01,
797,-2.00e+01,
798,-2.04e+01,
799,-2.08e+01,
800,-2.12e+01,
801,-2.12e+01,
802,-2.16e+01,
803,-2.20e+01,
804,-2.20e+01,
805,-2.24e+01,
806,-2.24e+01,
807,-2.24e+01,
808,-2.28e+01,
809,-2.32e+01,
810,-2.32e+01,
811,-2.36e+01,
812,-2.36e+01,
813,-2.36e+01,
814,-2.36e+01,
815,-2.36e+01,
816,-2.40e+01,
817,-2.40e+01,
818,-2.40e+01,
819,-2.40e+01,
820,-2.40e+01,
821,-2.36e+01,
822,-2.36e+01,
823,-2.36e+01,
824,-2.36e+01,
825,-2.36e+01,
826,-2.32e+01,
827,-2.32e+01,
828,-2.28e+01,
829,-2.28e+01,
830,-2.28e+01,
831,-2.20e+01,
832,-2.24e+01,
833,-2.20e+01,
834,-2.20e+01,
835,-2.16e+01,
836,-2.12e+01,
837,-2.04e+01,
838,-2.04e+01,
839,-2.04e+01,
840,-2.00e+01,
841,-1.96e+01,
842,-1.88e+01,
843,-1.84e+01,
844,-1.80e+01,
845,-1.76e+01,
846,-1.76e+01,
847,-1.68e+01,
848,-1.64e+01,
849,-1.60e+01,
850,-1.56e+01,
851,-1.52e+01,
852,-1.48e+01,
853,-1.44e+01,
854,-1.40e+01,
855,-1.32e+01,
856,-1.28e+01,
857,-1.24e+01,
858,-1.20e+01,
859,-1.12e+01,
860,-1.04e+01,
861,-1.00e+01,
862,-9.60e+00,
863,-8.80e+00,
864,-8.00e+00,
865,-7.20e+00,
866,-6.80e+00,
867,-6.40e+00,
868,-5.60e+00,
869,-5.20e+00,
870,-4.40e+00,
871,-4.00e+00,
872,-3.20e+00,
873,-2.80e+00,
874,-2.00e+00,
875,-1.60e+00,
876,-8.00e-01,
877,-4.00e-01,
878,4.00e-01,
879,8.00e-01,
880,1.60e+00,
881,2.40e+00,
882,3.20e+00,
883,3.60e+00,
884,4.40e+00,
885,4.80e+00,
886,5.60e+00,
887,6.00e+00,
888,6.80e+00,
889,7.20e+00,
890,8.00e+00,
891,8.40e+00,
892,8.80e+00,
893,9.60e+00,
894,1.04e+01,
895,1.04e+01,
896,1.12e+01,
897,1.16e+01,
898,1.24e+01,
899,1.32e+01,
900,1.36e+01,
901,1.40e+01,
902,1.48e+01,
903,1.52e+01,
904,1.56e+01,
905,1.60e+01,
906,1.64e+01,
907,1.68e+01,
908,1.72e+01,
909,1.76e+01,
910,1.80e+01,
911,1.84e+01,
912,1.88e+01,
913,1.92e+01,
914,1.96e+01,
915,2.00e+01,
916,2.00e+01,
917,2.04e+01,
918,2.08e+01,
919,2.12e+01,
920,2.12e+01,
921,2.16e+01,
922,2.16e+01,
923,2.20e+01,
924,2.20e+01,
925,2.24e+01,
926,2.28e+01,
927,2.28e+01,
928,2.28e+01,
929,2.28e+01,
930,2.32e+01,
931,2.32e+01,
932,2.32e+01,
933,2.32e+01,
934,2.32e+01,
935,2.32e+01,
936,2.32e+01,
937,2.40e+01,
938,2.32e+01,
939,2.32e+01,
940,2.32e+01,
941,2.32e+01,
942,2.28e+01,
943,2.28e+01,
944,2.28e+01,
945,2.28e+01,
946,2.24e+01,
947,2.24e+01,
948,2.24e+01,
949,2.20e+01,
950,2.16e+01,
951,2.16e+01,
952,2.12e+01,
953,2.08e+01,
954,2.08e+01,
955,2.04e+01,
956,2.00e+01,
957,1.96e+01,
958,1.96e+01,
959,1.88e+01,
960,1.88e+01,
961,1.84e+01,
962,1.80e+01,
963,1.76e+01,
964,1.72e+01,
965,1.68e+01,
966,1.64e+01,
967,1.60e+01,
968,1.56e+01,
969,1.52e+01,
970,1.44e+01,
971,1.40e+01,
972,1.36e+01,
973,1.32e+01,
974,1.20e+01,
975,1.16e+01,
976,1.12e+01,
977,1.08e+01,
978,1.00e+01,
979,9.60e+00,
980,8.80e+00,
981,8.40e+00,
982,8.00e+00,
983,7.20e+00,
984,6.80e+00,
985,6.00e+00,
986,5.60e+00,
987,4.80e+00,
988,4.40e+00,
989,3.60e+00,
990,3.20e+00,
991,2.40e+00,
992,1.60e+00,
993,-8.70e-05,
994,4.00e-01,
995,-4.00e-01,
996,-1.20e+00,
997,-1.60e+00,
998,-2.00e+00,
999,-2.80e+00,
1000,-3.20e+00,
1001,-4.00e+00,
1002,-4.40e+00,
1003,-5.20e+00,
1004,-5.60e+00,
1005,-6.40e+00,
1006,-6.80e+00,
1007,-7.60e+00,
1008,-8.00e+00,
1009,-8.80e+00,
1010,-9.60e+00,
1011,-1.00e+01,
1012,-1.08e+01,
1013,-1.12e+01,
1014,-1.16e+01,
1015,-1.20e+01,
1016,-1.28e+01,
1017,-1.32e+01,
1018,-1.36e+01,
1019,-1.44e+01,
1020,-1.48e+01,
1021,-1.52e+01,
1022,-1.56e+01,
1023,-1.60e+01,
1024,-1.68e+01,
1025,-1.68e+01,
1026,-1.76e+01,
1027,-1.80e+01,
1028,-1.84e+01,
1029,-1.88e+01,
1030,-1.96e+01,
1031,-1.96e+01,
1032,-2.00e+01,
1033,-2.04e+01,
1034,-2.08e+01,
1035,-2.08e+01,
1036,-2.12e+01,
1037,-2.16e+01,
1038,-2.20e+01,
1039,-2.20e+01,
1040,-2.24e+01,
1041,-2.28e+01,
1042,-2.28e+01,
1043,-2.28e+01,
1044,-2.32e+01,
1045,-2.32e+01,
1046,-2.36e+01,
1047,-2.36e+01,
1048,-2.36e+01,
1049,-2.40e+01,
1050,-2.40e+01,
1051,-2.40e+01,
1052,-2.40e+01,
1053,-2.40e+01,
1054,-2.40e+01,
1055,-2.40e+01,
1056,-2.40e+01,
1057,-2.40e+01,
1058,-2.40e+01,
1059,-2.40e+01,
1060,-2.36e+01,
1061,-2.36e+01,
1062,-2.32e+01,
1063,-2.32e+01,
1064,-2.28e+01,
1065,-2.28e+01,
1066,-2.24e+01,
1067,-2.24e+01,
1068,-2.24e+01,
1069,-2.20e+01,
1070,-2.20e+01,
1071,-2.16e+01,
1072,-2.12e+01,
1073,-2.08e+01,
1074,-2.08e+01,
1075,-1.88e+01,
1076,-2.00e+01,
1077,-1.96e+01,
1078,-1.88e+01,
1079,-1.84e+01,
1080,-1.80e+01,
1081,-1.76e+01,
1082,-1.72e+01,
1083,-1.68e+01,
1084,-1.64e+01,
1085,-1.60e+01,
1086,-1.56e+01,
1087,-1.52e+01,
1088,-1.44e+01,
1089,-1.40e+01,
1090,-1.36e+01,
1091,-1.32e+01,
1092,-1.28e+01,
1093,-1.20e+01,
1094,-1.16e+01,
1095,-1.08e+01,
1096,-1.04e+01,
1097,-1.00e+01,
1098,-9.20e+00,
1099,-8.80e+00,
1100,-7.60e+00,
1101,-7.20e+00,
1102,-6.80e+00,
1103,-6.00e+00,
1104,-5.60e+00,
1105,-4.80e+00,
1106,-4.40e+00,
1107,-4.00e+00,
1108,-3.20e+00,
1109,-2.40e+00,
1110,-2.00e+00,
1111,-1.20e+00,
1112,-8.00e-01,
1113,-8.70e-05,
1114,4.00e-01,
1115,8.00e-01,
1116,1.60e+00,
1117,2.40e+00,
1118,3.20e+00,
1119,4.00e+00,
1120,4.40e+00,
1121,5.20e+00,
1122,5.60e+00,
1123,6.00e+00,
1124,6.80e+00,
1125,7.20e+00,
1126,8.00e+00,
1127,8.40e+00,
1128,9.20e+00,
1129,9.60e+00,
1130,1.04e+01,
1131,1.08e+01,
1132,1.12e+01,
1133,1.16e+01,
1134,1.24e+01,
1135,1.32e+01,
1136,1.36e+01,
1137,1.40e+01,
1138,1.44e+01,
1139,1.48e+01,
1140,1.56e+01,
1141,1.56e+01,
1142,1.64e+01,
1143,1.68e+01,
1144,1.72e+01,
1145,1.76e+01,
1146,1.80e+01,
1147,1.84e+01,
1148,1.88e+01,
1149,1.48e+01,
1150,1.96e+01,
1151,1.96e+01,
1152,2.00e+01,
1153,2.04e+01,
1154,2.08e+01,
1155,2.08e+01,
1156,2.12e+01,
1157,2.12e+01,
1158,2.16e+01,
1159,2.16e+01,
1160,2.20e+01,
1161,2.20e+01,
1162,2.24e+01,
1163,2.24e+01,
1164,2.28e+01,
1165,2.28e+01,
1166,2.28e+01,
1167,2.28e+01,
1168,2.32e+01,
1169,2.32e+01,
1170,2.32e+01,
1171,2.32e+01,
1172,2.32e+01,
1173,2.32e+01,
1174,2.32e+01,
1175,2.32e+01,
1176,2.32e+01,
1177,2.32e+01,
1178,2.28e+01,
1179,2.28e+01,
1180,2.28e+01,
1181,2.28e+01,
1182,2.24e+01,
1183,2.24e+01,
1184,2.20e+01,
1185,2.20e+01,
1186,2.16e+01,
1187,2.16e+01,
1188,2.12e+01,
1189,2.12e+01,
1190,2.08e+01,
1191,2.04e+01,
1192,2.04e+01,
1193,1.96e+01,
1194,1.96e+01,
1195,1.92e+01,
1196,1.88e+01,
1197,1.84e+01,
1198,1.80e+01,
1199,1.76e+01,
1200,1.76e+01,
1201,1.68e+01,
1202,1.64e+01,
1203,1.60e+01,
1204,1.56e+01,
1205,1.52e+01,
1206,1.48e+01,
1207,1.44e+01,
1208,1.36e+01,
1209,1.32e+01,
1210,1.24e+01,
1211,1.16e+01,
1212,1.12e+01,
1213,1.08e+01,
1214,1.04e+01,
1215,1.00e+01,
1216,9.20e+00,
1217,8.80e+00,
1218,8.00e+00,
1219,7.60e+00,
1220,6.80e+00,
1221,6.40e+00,
1222,5.60e+00,
1223,5.20e+00,
1224,4.40e+00,
1225,4.00e+00,
1226,3.20e+00,
1227,2.80e+00,
1228,1.60e+00,
1229,1.20e+00,
1230,4.00e-01,
1231,-8.70e-05,
1232,-8.00e-01,
1233,-1.20e+00,
1234,-2.00e+00,
1235,-2.40e+00,
1236,-3.20e+00,
1237,-3.60e+00,
1238,-4.00e+00,
1239,-4.80e+00,
1240,-5.60e+00,
1241,-6.00e+00,
1242,-6.80e+00,
1243,-7.20e+00,
1244,-8.00e+00,
1245,-8.80e+00,
1246,-9.60e+00,
1247,-1.00e+01,
1248,-1.08e+01,
1249,-1.12e+01,
1250,-1.16e+01,
1251,-1.20e+01,
1252,-1.28e+01,
1253,-1.32e+01,
1254,-1.36e+01,
1255,-1.44e+01,
1256,-1.48e+01,
1257,-1.52e+01,
1258,-1.56e+01,
1259,-1.64e+01,
1260,-1.68e+01,
1261,-1.68e+01,
1262,-1.76e+01,
1263,-1.80e+01,
1264,-1.84e+01,
1265,-1.88e+01,
1266,-1.96e+01,
1267,-2.00e+01,
1268,-2.00e+01,
1269,-2.04e+01,
1270,-2.08e+01,
1271,-2.32e+01,
1272,-2.16e+01,
1273,-2.16e+01,
1274,-2.20e+01,
1275,-2.20e+01,
1276,-2.24e+01,
1277,-2.28e+01,
1278,-2.28e+01,
1279,-2.32e+01,
1280,-2.32e+01,
1281,-2.32e+01,
1282,-2.36e+01,
1283,-2.36e+01,
1284,-2.36e+01,
1285,-2.40e+01,
1286,-2.40e+01,
1287,-2.40e+01,
1288,-2.40e+01,
1289,-2.40e+01,
1290,-2.40e+01,
1291,-2.40e+01,
1292,-2.40e+01,
1293,-2.40e+01,
1294,-2.40e+01,
1295,-2.36e+01,
1296,-2.36e+01,
1297,-2.36e+01,
1298,-2.36e+01,
1299,-2.32e+01,
1300,-2.32e+01,
1301,-2.32e+01,
1302,-2.28e+01,
1303,-2.24e+01,
1304,-2.24e+01,
1305,-2.20e+01,
1306,-2.20e+01,
1307,-2.16e+01,
1308,-2.12e+01,
1309,-2.08e+01,
1310,-2.08e+01,
1311,-2.04e+01,
1312,-2.00e+01,
1313,-1.96e+01,
1314,-1.88e+01,
1315,-1.84e+01,
1316,-1.80e+01,
1317,-1.76e+01,
1318,-1.72e+01,
1319,-1.56e+01,
1320,-1.64e+01,
1321,-1.60e+01,
1322,-1.56e+01,
1323,-1.52e+01,
1324,-1.44e+01,
1325,-1.40e+01,
1326,-1.36e+01,
1327,-1.32e+01,
1328,-1.24e+01,
1329,-1.20e+01,
1330,-1.16e+01,
1331,-1.08e+01,
1332,-1.04e+01,
1333,-9.60e+00,
1334,-9.20e+00,
1335,-8.00e+00,
1336,-7.60e+00,
1337,-6.80e+00,
1338,-6.40e+00,
1339,-5.60e+00,
1340,-5.20e+00,
1341,-4.40e+00,
1342,-4.00e+00,
1343,-3.20e+00,
1344,-2.80e+00,
1345,-2.00e+00,
1346,-1.20e+00,
1347,-8.00e-01,
1348,-4.00e-01,
1349,-8.70e-05,
1350,8.00e-01,
1351,2.40e+00,
1352,2.80e+00,
1353,3.60e+00,
1354,4.00e+00,
