Analysis/powered_spin_test/oscilloscope_data/NewFile5.csv

X,CH1,Start,Increment,
Sequence,Volt,9.999998e-01,5.000000e-04
0,-4.40e+00,
1,-4.00e+00,
2,-4.00e+00,
3,-3.60e+00,
4,-3.20e+00,
5,-3.20e+00,
6,-2.80e+00,
7,-2.40e+00,
8,-2.40e+00,
9,-2.00e+00,
10,-1.60e+00,
11,-1.60e+00,
12,-1.20e+00,
13,-8.00e-01,
14,-8.00e-01,
15,-4.00e-01,
16,-8.70e-05,
17,-8.70e-05,
18,4.00e-01,
19,8.00e-01,
20,1.20e+00,
21,1.20e+00,
22,1.60e+00,
23,2.40e+00,
24,2.40e+00,
25,2.80e+00,
26,3.20e+00,
27,3.20e+00,
28,3.60e+00,
29,3.60e+00,
30,4.00e+00,
31,4.40e+00,
32,4.80e+00,
33,4.80e+00,
34,5.20e+00,
35,5.60e+00,
36,5.60e+00,
37,6.00e+00,
38,6.00e+00,
39,6.40e+00,
40,6.80e+00,
41,6.80e+00,
42,7.20e+00,
43,7.60e+00,
44,7.60e+00,
45,8.00e+00,
46,8.00e+00,
47,8.40e+00,
48,8.40e+00,
49,8.80e+00,
50,9.20e+00,
51,9.20e+00,
52,9.60e+00,
53,9.60e+00,
54,1.00e+01,
55,1.04e+01,
56,1.04e+01,
57,1.08e+01,
58,1.08e+01,
59,1.12e+01,
60,1.12e+01,
61,1.16e+01,
62,1.16e+01,
63,1.20e+01,
64,1.20e+01,
65,1.24e+01,
66,1.24e+01,
67,1.24e+01,
68,1.32e+01,
69,1.32e+01,
70,1.36e+01,
71,1.36e+01,
72,1.36e+01,
73,1.40e+01,
74,1.40e+01,
75,1.44e+01,
76,1.44e+01,
77,1.44e+01,
78,1.48e+01,
79,1.48e+01,
80,1.48e+01,
81,1.52e+01,
82,1.52e+01,
83,1.56e+01,
84,1.56e+01,
85,1.56e+01,
86,1.56e+01,
87,1.56e+01,
88,1.60e+01,
89,1.60e+01,
90,1.60e+01,
91,1.60e+01,
92,1.60e+01,
93,1.64e+01,
94,1.64e+01,
95,1.64e+01,
96,1.64e+01,
97,1.64e+01,
98,1.68e+01,
99,1.68e+01,
100,1.68e+01,
101,1.68e+01,
102,1.68e+01,
103,1.68e+01,
104,1.68e+01,
105,1.68e+01,
106,1.68e+01,
107,1.68e+01,
108,1.68e+01,
109,1.68e+01,
110,1.68e+01,
111,1.68e+01,
112,1.68e+01,
113,1.68e+01,
114,1.68e+01,
115,1.68e+01,
116,1.68e+01,
117,1.68e+01,
118,1.68e+01,
119,1.68e+01,
120,1.68e+01,
121,1.68e+01,
122,1.68e+01,
123,1.64e+01,
124,1.64e+01,
125,1.64e+01,
126,1.64e+01,
127,1.64e+01,
128,1.60e+01,
129,1.60e+01,
130,1.60e+01,
131,1.60e+01,
132,1.56e+01,
133,1.56e+01,
134,1.56e+01,
135,1.56e+01,
136,1.56e+01,
137,1.52e+01,
138,1.52e+01,
139,1.48e+01,
140,1.48e+01,
141,1.48e+01,
142,1.48e+01,
143,1.44e+01,
144,1.44e+01,
145,1.40e+01,
146,1.40e+01,
147,1.36e+01,
148,1.36e+01,
149,1.36e+01,
150,1.36e+01,
151,1.32e+01,
152,1.24e+01,
153,1.24e+01,
154,1.20e+01,
155,1.20e+01,
156,1.20e+01,
157,1.16e+01,
158,1.12e+01,
159,1.12e+01,
160,1.08e+01,
161,1.08e+01,
162,1.04e+01,
163,1.04e+01,
164,1.04e+01,
165,1.00e+01,
166,1.00e+01,
167,9.20e+00,
168,9.20e+00,
169,9.20e+00,
170,8.80e+00,
171,8.80e+00,
172,8.40e+00,
173,8.00e+00,
174,8.00e+00,
175,7.60e+00,
176,7.20e+00,
177,7.20e+00,
178,6.80e+00,
179,6.80e+00,
180,6.40e+00,
181,6.00e+00,
182,6.00e+00,
183,5.60e+00,
184,5.20e+00,
185,5.20e+00,
186,4.80e+00,
187,4.80e+00,
188,4.40e+00,
189,4.40e+00,
190,3.60e+00,
191,3.60e+00,
192,3.20e+00,
193,3.20e+00,
194,2.80e+00,
195,2.40e+00,
196,2.40e+00,
197,1.60e+00,
198,1.20e+00,
199,8.00e-01,
200,8.00e-01,
201,4.00e-01,
202,-8.70e-05,
203,-8.70e-05,
204,-4.00e-01,
205,-8.00e-01,
206,-8.00e-01,
207,-1.20e+00,
208,-1.60e+00,
209,-1.60e+00,
210,-2.00e+00,
211,-2.40e+00,
212,-2.80e+00,
213,-2.80e+00,
214,-3.20e+00,
215,-3.20e+00,
216,-3.60e+00,
217,-4.00e+00,
218,-4.00e+00,
219,-4.40e+00,
220,-4.40e+00,
221,-5.20e+00,
222,-5.20e+00,
223,-5.60e+00,
224,-5.60e+00,
225,-6.00e+00,
226,-6.00e+00,
227,-6.40e+00,
228,-6.80e+00,
229,-7.20e+00,
230,-7.20e+00,
231,-7.60e+00,
232,-7.60e+00,
233,-8.00e+00,
234,-8.00e+00,
235,-8.80e+00,
236,-9.20e+00,
237,-9.20e+00,
238,-9.60e+00,
239,-9.60e+00,
240,-1.00e+01,
241,-1.00e+01,
242,-1.04e+01,
243,-1.08e+01,
244,-1.08e+01,
245,-1.12e+01,
246,-1.12e+01,
247,-1.12e+01,
248,-1.16e+01,
249,-1.20e+01,
250,-1.20e+01,
251,-1.24e+01,
252,-1.24e+01,
253,-1.24e+01,
254,-1.28e+01,
255,-1.28e+01,
256,-1.32e+01,
257,-1.32e+01,
258,-1.36e+01,
259,-1.36e+01,
260,-1.36e+01,
261,-1.40e+01,
262,-1.40e+01,
263,-1.40e+01,
264,-1.44e+01,
265,-1.44e+01,
266,-1.44e+01,
267,-1.48e+01,
268,-1.48e+01,
269,-1.52e+01,
270,-1.52e+01,
271,-1.52e+01,
272,-1.56e+01,
273,-1.56e+01,
274,-1.56e+01,
275,-1.56e+01,
276,-1.60e+01,
277,-1.60e+01,
278,-1.60e+01,
279,-1.60e+01,
280,-1.64e+01,
281,-1.64e+01,
282,-1.64e+01,
283,-1.64e+01,
284,-1.64e+01,
285,-1.64e+01,
286,-1.64e+01,
287,-1.64e+01,
288,-1.68e+01,
289,-1.68e+01,
290,-1.68e+01,
291,-1.68e+01,
292,-1.68e+01,
293,-1.68e+01,
294,-1.68e+01,
295,-1.68e+01,
296,-1.68e+01,
297,-1.68e+01,
298,-1.68e+01,
299,-1.68e+01,
300,-1.68e+01,
301,-1.68e+01,
302,-1.68e+01,
303,-1.68e+01,
304,-1.68e+01,
305,-1.68e+01,
306,-1.64e+01,
307,-1.64e+01,
308,-1.64e+01,
309,-1.64e+01,
310,-1.64e+01,
311,-1.64e+01,
312,-1.64e+01,
313,-1.64e+01,
314,-1.64e+01,
315,-1.60e+01,
316,-1.60e+01,
317,-1.60e+01,
318,-1.60e+01,
319,-1.60e+01,
320,-1.56e+01,
321,-1.56e+01,
322,-1.56e+01,
323,-1.52e+01,
324,-1.52e+01,
325,-1.52e+01,
326,-1.48e+01,
327,-1.48e+01,
328,-1.48e+01,
329,-1.44e+01,
330,-1.44e+01,
331,-1.44e+01,
332,-1.40e+01,
333,-1.40e+01,
334,-1.36e+01,
335,-1.36e+01,
336,-1.36e+01,
337,-1.32e+01,
338,-1.32e+01,
339,-1.28e+01,
340,-1.28e+01,
341,-1.24e+01,
342,-1.24e+01,
343,-1.24e+01,
344,-1.20e+01,
345,-1.20e+01,
346,-1.16e+01,
347,-1.16e+01,
348,-1.12e+01,
349,-1.12e+01,
350,-1.08e+01,
351,-1.08e+01,
352,-1.04e+01,
353,-1.04e+01,
354,-1.00e+01,
355,-9.60e+00,
356,-9.60e+00,
357,-9.60e+00,
358,-9.20e+00,
359,-8.80e+00,
360,-8.80e+00,
361,-8.00e+00,
362,-8.00e+00,
363,-7.60e+00,
364,-7.20e+00,
365,-7.20e+00,
366,-6.80e+00,
367,-6.40e+00,
368,-6.40e+00,
369,-6.00e+00,
370,-6.00e+00,
371,-5.60e+00,
372,-5.20e+00,
373,-5.20e+00,
374,-4.80e+00,
375,-4.40e+00,
376,-4.40e+00,
377,-4.00e+00,
378,-3.60e+00,
379,-3.60e+00,
380,-3.20e+00,
381,-2.80e+00,
382,-2.80e+00,
383,-2.40e+00,
384,-2.00e+00,
385,-2.00e+00,
386,-1.60e+00,
387,-1.20e+00,
388,-1.20e+00,
389,-8.00e-01,
390,-4.00e-01,
391,-4.00e-01,
392,-8.70e-05,
393,-8.70e-05,
394,4.00e-01,
395,8.00e-01,
396,1.20e+00,
397,1.20e+00,
398,1.60e+00,
399,2.40e+00,
400,2.40e+00,
401,2.80e+00,
402,3.20e+00,
403,3.20e+00,
404,3.60e+00,
405,4.00e+00,
406,4.00e+00,
407,4.40e+00,
408,4.80e+00,
409,5.20e+00,
410,5.20e+00,
411,5.60e+00,
412,6.00e+00,
413,6.00e+00,
414,6.40e+00,
415,6.40e+00,
416,6.80e+00,
417,7.20e+00,
418,7.20e+00,
419,7.20e+00,
420,7.60e+00,
421,8.00e+00,
422,8.00e+00,
423,8.40e+00,
424,8.80e+00,
425,9.20e+00,
426,9.20e+00,
427,9.20e+00,
428,9.60e+00,
429,9.60e+00,
430,1.00e+01,
431,1.04e+01,
432,1.04e+01,
433,1.04e+01,
434,1.08e+01,
435,1.12e+01,
436,1.12e+01,
437,1.16e+01,
438,1.16e+01,
439,1.16e+01,
440,1.20e+01,
441,1.24e+01,
442,1.24e+01,
443,1.32e+01,
444,1.32e+01,
445,1.32e+01,
446,1.36e+01,
447,1.36e+01,
448,1.36e+01,
449,1.40e+01,
450,1.40e+01,
451,1.44e+01,
452,1.44e+01,
453,1.48e+01,
454,1.48e+01,
455,1.48e+01,
456,1.52e+01,
457,1.52e+01,
458,1.52e+01,
459,1.56e+01,
460,1.56e+01,
461,1.56e+01,
462,1.56e+01,
463,1.56e+01,
464,1.60e+01,
465,1.60e+01,
466,1.60e+01,
467,1.60e+01,
468,1.64e+01,
469,1.64e+01,
470,1.64e+01,
471,1.64e+01,
472,1.68e+01,
473,1.68e+01,
474,1.68e+01,
475,1.68e+01,
476,1.68e+01,
477,1.68e+01,
478,1.68e+01,
479,1.68e+01,
480,1.68e+01,
481,1.68e+01,
482,1.72e+01,
483,1.68e+01,
484,1.68e+01,
485,1.68e+01,
486,1.68e+01,
487,1.68e+01,
488,1.68e+01,
489,1.68e+01,
490,1.68e+01,
491,1.68e+01,
492,1.68e+01,
493,1.68e+01,
494,1.68e+01,
495,1.68e+01,
496,1.68e+01,
497,1.68e+01,
498,1.68e+01,
499,1.68e+01,
500,1.64e+01,
501,1.64e+01,
502,1.64e+01,
503,1.64e+01,
504,1.64e+01,
505,1.60e+01,
506,1.60e+01,
507,1.60e+01,
508,1.60e+01,
509,1.60e+01,
510,1.56e+01,
511,1.56e+01,
512,1.56e+01,
513,1.52e+01,
514,1.52e+01,
515,1.48e+01,
516,1.48e+01,
517,1.48e+01,
518,1.48e+01,
519,1.44e+01,
520,1.44e+01,
521,1.44e+01,
522,1.40e+01,
523,1.40e+01,
524,1.36e+01,
525,1.36e+01,
526,1.36e+01,
527,1.32e+01,
528,1.24e+01,
529,1.24e+01,
530,1.24e+01,
531,1.20e+01,
532,1.20e+01,
533,1.16e+01,
534,1.16e+01,
535,1.12e+01,
536,1.12e+01,
537,1.08e+01,
538,1.08e+01,
539,1.04e+01,
540,1.04e+01,
541,1.00e+01,
542,1.00e+01,
543,9.60e+00,
544,9.60e+00,
545,9.20e+00,
546,8.80e+00,
547,8.80e+00,
548,8.40e+00,
549,8.00e+00,
550,8.00e+00,
551,7.60e+00,
552,7.60e+00,
553,7.20e+00,
554,7.20e+00,
555,6.80e+00,
556,6.40e+00,
557,6.40e+00,
558,6.00e+00,
559,5.60e+00,
560,5.60e+00,
561,5.20e+00,
562,4.80e+00,
563,4.80e+00,
564,4.40e+00,
565,4.40e+00,
566,4.00e+00,
567,3.60e+00,
568,3.20e+00,
569,3.20e+00,
570,2.80e+00,
571,2.40e+00,
572,2.40e+00,
573,1.60e+00,
574,1.20e+00,
575,8.00e-01,
576,8.00e-01,
577,4.00e-01,
578,4.00e-01,
579,-8.70e-05,
580,-4.00e-01,
581,-4.00e-01,
582,-8.00e-01,
583,-1.20e+00,
584,-1.20e+00,
585,-2.00e+00,
586,-2.00e+00,
587,-2.00e+00,
588,-2.40e+00,
589,-2.80e+00,
590,-3.20e+00,
591,-3.60e+00,
592,-3.60e+00,
593,-4.00e+00,
594,-4.40e+00,
595,-4.40e+00,
596,-4.80e+00,
597,-5.20e+00,
598,-5.20e+00,
599,-5.60e+00,
600,-6.00e+00,
601,-6.00e+00,
602,-6.40e+00,
603,-6.80e+00,
604,-6.80e+00,
605,-6.80e+00,
606,-7.20e+00,
607,-7.60e+00,
608,-8.00e+00,
609,-8.00e+00,
610,-8.80e+00,
611,-9.20e+00,
612,-9.20e+00,
613,-9.20e+00,
614,-9.60e+00,
615,-1.00e+01,
616,-1.00e+01,
617,-1.04e+01,
618,-1.08e+01,
619,-1.08e+01,
620,-1.08e+01,
621,-1.12e+01,
622,-1.16e+01,
623,-1.16e+01,
624,-1.20e+01,
625,-1.20e+01,
626,-1.24e+01,
627,-1.24e+01,
628,-1.28e+01,
629,-1.28e+01,
630,-1.28e+01,
631,-1.32e+01,
632,-1.32e+01,
633,-1.36e+01,
634,-1.36e+01,
635,-1.40e+01,
636,-1.40e+01,
637,-1.44e+01,
638,-1.44e+01,
639,-1.44e+01,
640,-1.48e+01,
641,-1.48e+01,
642,-1.52e+01,
643,-1.52e+01,
644,-1.52e+01,
645,-1.56e+01,
646,-1.56e+01,
647,-1.56e+01,
648,-1.56e+01,
649,-1.60e+01,
650,-1.60e+01,
651,-1.60e+01,
652,-1.64e+01,
653,-1.64e+01,
654,-1.64e+01,
655,-1.64e+01,
656,-1.64e+01,
657,-1.64e+01,
658,-1.68e+01,
659,-1.68e+01,
660,-1.68e+01,
661,-1.68e+01,
662,-1.72e+01,
663,-1.72e+01,
664,-1.72e+01,
665,-1.68e+01,
666,-1.72e+01,
667,-1.72e+01,
668,-1.72e+01,
669,-1.72e+01,
670,-1.72e+01,
671,-1.72e+01,
672,-1.72e+01,
673,-1.72e+01,
674,-1.72e+01,
675,-1.72e+01,
676,-1.72e+01,
677,-1.72e+01,
678,-1.72e+01,
679,-1.72e+01,
680,-1.72e+01,
681,-1.72e+01,
682,-1.68e+01,
683,-1.72e+01,
684,-1.68e+01,
685,-1.68e+01,
686,-1.68e+01,
687,-1.68e+01,
688,-1.68e+01,
689,-1.64e+01,
690,-1.64e+01,
691,-1.64e+01,
692,-1.64e+01,
693,-1.60e+01,
694,-1.60e+01,
695,-1.60e+01,
696,-1.60e+01,
697,-1.56e+01,
698,-1.56e+01,
699,-1.56e+01,
700,-1.52e+01,
701,-1.52e+01,
702,-1.52e+01,
703,-1.48e+01,
704,-1.48e+01,
705,-1.48e+01,
706,-1.44e+01,
707,-1.44e+01,
708,-1.40e+01,
709,-1.40e+01,
710,-1.40e+01,
711,-1.36e+01,
712,-1.36e+01,
713,-1.32e+01,
714,-1.32e+01,
715,-1.28e+01,
716,-1.28e+01,
717,-1.28e+01,
718,-1.24e+01,
719,-1.24e+01,
720,-1.20e+01,
721,-1.16e+01,
722,-1.16e+01,
723,-1.12e+01,
724,-1.12e+01,
725,-1.08e+01,
726,-1.08e+01,
727,-1.04e+01,
728,-1.04e+01,
729,-1.00e+01,
730,-9.60e+00,
731,-9.60e+00,
732,-9.20e+00,
733,-9.20e+00,
734,-8.80e+00,
735,-8.00e+00,
736,-8.00e+00,
737,-7.60e+00,
738,-7.60e+00,
739,-7.20e+00,
740,-7.20e+00,
741,-6.80e+00,
742,-6.40e+00,
743,-6.00e+00,
744,-6.00e+00,
745,-5.60e+00,
746,-5.60e+00,
747,-5.20e+00,
748,-4.80e+00,
749,-4.40e+00,
750,-4.40e+00,
751,-4.00e+00,
752,-3.60e+00,
753,-3.60e+00,
754,-3.20e+00,
755,-2.80e+00,
756,-2.80e+00,
757,-2.40e+00,
758,-2.00e+00,
759,-1.60e+00,
760,-1.60e+00,
761,-1.20e+00,
762,-8.00e-01,
763,-8.00e-01,
764,-4.00e-01,
765,-8.70e-05,
766,-8.70e-05,
767,4.00e-01,
768,8.00e-01,
769,8.00e-01,
770,1.20e+00,
771,1.60e+00,
772,2.40e+00,
773,2.40e+00,
774,2.80e+00,
775,3.20e+00,
776,3.60e+00,
777,3.60e+00,
778,4.00e+00,
779,4.40e+00,
780,4.40e+00,
781,4.80e+00,
782,5.20e+00,
783,5.20e+00,
784,5.60e+00,
785,6.00e+00,
786,6.40e+00,
787,6.40e+00,
788,6.80e+00,
789,6.80e+00,
790,7.20e+00,
791,7.20e+00,
792,7.60e+00,
793,8.00e+00,
794,8.40e+00,
795,8.40e+00,
796,8.80e+00,
797,9.20e+00,
798,9.20e+00,
799,9.20e+00,
800,9.60e+00,
801,1.00e+01,
802,1.00e+01,
803,1.04e+01,
804,1.08e+01,
805,1.08e+01,
806,1.12e+01,
807,1.12e+01,
808,1.12e+01,
809,1.16e+01,
810,1.20e+01,
811,1.20e+01,
812,1.20e+01,
813,1.24e+01,
814,1.32e+01,
815,1.32e+01,
816,1.32e+01,
817,1.36e+01,
818,1.36e+01,
819,1.40e+01,
820,1.40e+01,
821,1.40e+01,
822,1.44e+01,
823,1.44e+01,
824,1.48e+01,
825,1.48e+01,
826,1.52e+01,
827,1.52e+01,
828,1.52e+01,
829,1.56e+01,
830,1.56e+01,
831,1.56e+01,
832,1.56e+01,
833,1.60e+01,
834,1.60e+01,
835,1.60e+01,
836,1.64e+01,
837,1.64e+01,
838,1.64e+01,
839,1.68e+01,
840,1.68e+01,
841,1.68e+01,
842,1.68e+01,
843,1.68e+01,
844,1.68e+01,
845,1.68e+01,
846,1.72e+01,
847,1.72e+01,
848,1.72e+01,
849,1.72e+01,
850,1.72e+01,
851,1.72e+01,
852,1.72e+01,
853,1.72e+01,
854,1.72e+01,
855,1.72e+01,
856,1.72e+01,
857,1.76e+01,
858,1.72e+01,
859,1.76e+01,
860,1.72e+01,
861,1.72e+01,
862,1.72e+01,
863,1.72e+01,
864,1.72e+01,
865,1.72e+01,
866,1.72e+01,
867,1.72e+01,
868,1.72e+01,
869,1.68e+01,
870,1.68e+01,
871,1.68e+01,
872,1.68e+01,
873,1.68e+01,
874,1.68e+01,
875,1.64e+01,
876,1.64e+01,
877,1.64e+01,
878,1.64e+01,
879,1.64e+01,
880,1.60e+01,
881,1.60e+01,
882,1.60e+01,
883,1.56e+01,
884,1.56e+01,
885,1.56e+01,
886,1.56e+01,
887,1.52e+01,
888,1.68e+01,
889,1.48e+01,
890,1.48e+01,
891,1.48e+01,
892,1.44e+01,
893,1.44e+01,
894,1.44e+01,
895,1.40e+01,
896,1.40e+01,
897,1.36e+01,
898,1.32e+01,
899,1.32e+01,
900,1.32e+01,
901,1.24e+01,
902,1.24e+01,
903,1.20e+01,
904,1.20e+01,
905,1.16e+01,
906,1.24e+01,
907,1.12e+01,
908,1.12e+01,
909,1.08e+01,
910,1.04e+01,
911,1.04e+01,
912,1.04e+01,
913,1.00e+01,
914,1.00e+01,
915,9.60e+00,
916,9.20e+00,
917,9.20e+00,
918,8.80e+00,
919,8.40e+00,
920,4.80e+00,
921,8.00e+00,
922,7.60e+00,
923,7.60e+00,
924,9.60e+00,
925,6.80e+00,
926,6.80e+00,
927,6.40e+00,
928,6.40e+00,
929,6.00e+00,
930,5.60e+00,
931,5.60e+00,
932,5.20e+00,
933,4.80e+00,
934,4.80e+00,
935,4.40e+00,
936,4.00e+00,
937,4.00e+00,
938,1.60e+00,
939,3.20e+00,
940,3.20e+00,
941,2.80e+00,
942,2.40e+00,
943,1.60e+00,
944,1.60e+00,
945,1.20e+00,
946,1.20e+00,
947,8.00e-01,
948,4.00e-01,
949,-8.70e-05,
950,-8.70e-05,
951,-4.00e-01,
952,-2.80e+00,
953,-1.20e+00,
954,-1.20e+00,
955,-1.60e+00,
956,-2.80e+00,
957,-2.00e+00,
958,-2.40e+00,
959,-2.80e+00,
960,-3.20e+00,
961,-3.20e+00,
962,-3.60e+00,
963,-4.00e+00,
964,-4.00e+00,
965,-4.40e+00,
966,-4.40e+00,
967,-4.80e+00,
968,-5.20e+00,
969,-5.60e+00,
970,-1.20e+00,
971,-6.00e+00,
972,-6.40e+00,
973,-6.40e+00,
974,-5.60e+00,
975,-7.20e+00,
976,-7.20e+00,
977,-7.60e+00,
978,-8.00e+00,
979,-8.00e+00,
980,-8.00e+00,
981,-8.80e+00,
982,-9.20e+00,
983,-9.20e+00,
984,-9.60e+00,
985,-1.00e+01,
986,-1.00e+01,
987,-1.04e+01,
988,-1.08e+01,
989,-1.08e+01,
990,-1.08e+01,
991,-1.12e+01,
992,-1.16e+01,
993,-1.16e+01,
994,-1.20e+01,
995,-1.20e+01,
996,-1.20e+01,
997,-1.24e+01,
998,-1.28e+01,
999,-1.28e+01,
1000,-1.28e+01,
1001,-1.32e+01,
1002,-1.96e+01,
1003,-1.36e+01,
1004,-1.36e+01,
1005,-1.36e+01,
1006,-1.52e+01,
1007,-1.44e+01,
1008,-1.44e+01,
1009,-1.44e+01,
1010,-1.48e+01,
1011,-1.48e+01,
1012,-1.48e+01,
1013,-1.52e+01,
1014,-1.52e+01,
1015,-1.56e+01,
1016,-1.56e+01,
1017,-1.56e+01,
1018,-1.56e+01,
1019,-1.60e+01,
1020,-1.44e+01,
1021,-1.60e+01,
1022,-1.60e+01,
1023,-1.64e+01,
1024,-1.68e+01,
1025,-1.64e+01,
1026,-1.64e+01,
1027,-1.68e+01,
1028,-1.68e+01,
1029,-1.68e+01,
1030,-1.68e+01,
1031,-1.68e+01,
1032,-1.68e+01,
1033,-1.68e+01,
1034,-1.36e+01,
1035,-1.72e+01,
1036,-1.72e+01,
1037,-1.72e+01,
1038,-1.68e+01,
1039,-1.72e+01,
1040,-1.72e+01,
1041,-1.72e+01,
1042,-1.64e+01,
1043,-1.72e+01,
1044,-1.72e+01,
1045,-1.72e+01,
1046,-1.72e+01,
1047,-1.72e+01,
1048,-1.72e+01,
1049,-1.72e+01,
1050,-1.72e+01,
1051,-1.68e+01,
1052,-1.48e+01,
1053,-1.68e+01,
1054,-1.68e+01,
1055,-1.68e+01,
1056,-1.64e+01,
1057,-1.68e+01,
1058,-1.64e+01,
1059,-1.64e+01,
1060,-1.64e+01,
1061,-1.64e+01,
1062,-1.64e+01,
1063,-1.60e+01,
1064,-1.60e+01,
1065,-1.60e+01,
1066,-1.60e+01,
1067,-1.56e+01,
1068,-1.56e+01,
1069,-1.56e+01,
1070,-1.72e+01,
1071,-1.52e+01,
1072,-1.52e+01,
1073,-1.48e+01,
1074,-1.52e+01,
1075,-1.48e+01,
1076,-1.44e+01,
1077,-1.44e+01,
1078,-1.44e+01,
1079,-1.40e+01,
1080,-1.40e+01,
1081,-1.36e+01,
1082,-1.36e+01,
1083,-1.32e+01,
1084,-1.28e+01,
1085,-1.32e+01,
1086,-1.28e+01,
1087,-1.24e+01,
1088,-1.24e+01,
1089,-1.24e+01,
1090,-1.20e+01,
1091,-1.16e+01,
1092,-1.12e+01,
1093,-1.16e+01,
1094,-1.12e+01,
1095,-1.12e+01,
1096,-1.08e+01,
1097,-1.08e+01,
1098,-1.04e+01,
1099,-1.04e+01,
1100,-1.00e+01,
1101,-9.60e+00,
1102,-7.20e+00,
1103,-9.20e+00,
1104,-4.00e-01,
1105,-8.80e+00,
1106,-8.00e+00,
1107,-8.00e+00,
1108,-7.60e+00,
1109,-7.20e+00,
1110,-7.20e+00,
1111,-7.20e+00,
1112,-6.80e+00,
1113,-6.40e+00,
1114,-6.00e+00,
1115,-6.00e+00,
1116,-5.60e+00,
1117,-5.20e+00,
1118,-5.20e+00,
1119,-4.80e+00,
1120,-4.80e+00,
1121,-4.40e+00,
1122,2.80e+00,
1123,-4.00e+00,
1124,-3.20e+00,
1125,-3.20e+00,
1126,-3.20e+00,
1127,-2.80e+00,
1128,-2.40e+00,
1129,-2.40e+00,
1130,-2.00e+00,
1131,-1.60e+00,
1132,-1.20e+00,
1133,-1.20e+00,
1134,-4.40e+00,
1135,-4.00e-01,
1136,-1.12e+01,
1137,-8.70e-05,
1138,-8.70e-05,
1139,4.00e-01,
1140,1.12e+01,
1141,1.20e+00,
1142,8.00e-01,
1143,1.60e+00,
1144,2.40e+00,
1145,2.40e+00,
1146,2.80e+00,
1147,3.20e+00,
1148,3.60e+00,
1149,4.00e+00,
1150,4.40e+00,
1151,4.40e+00,
1152,3.60e+00,
1153,4.80e+00,
1154,6.40e+00,
1155,5.20e+00,
1156,5.20e+00,
1157,6.00e+00,
1158,8.80e+00,
1159,6.40e+00,
1160,4.40e+00,
1161,6.80e+00,
1162,7.20e+00,
1163,7.20e+00,
1164,7.60e+00,
1165,8.00e+00,
1166,1.12e+01,
1167,8.40e+00,
1168,8.00e-01,
1169,8.80e+00,
1170,9.60e+00,
1171,9.20e+00,
1172,3.20e+00,
1173,9.60e+00,
1174,1.00e+01,
1175,1.00e+01,
1176,1.04e+01,
1177,1.04e+01,
1178,1.08e+01,
1179,1.08e+01,
1180,1.12e+01,
1181,1.16e+01,
1182,1.60e+01,
1183,1.20e+01,
1184,1.20e+01,
1185,1.24e+01,
1186,8.00e+00,
1187,1.32e+01,
1188,1.32e+01,
1189,1.32e+01,
1190,1.20e+01,
1191,1.36e+01,
1192,1.36e+01,
1193,1.40e+01,
1194,1.44e+01,
1195,1.44e+01,
1196,9.60e+00,
1197,1.48e+01,
1198,1.48e+01,
1199,1.48e+01,
1200,1.16e+01,
1201,1.52e+01,
1202,1.44e+01,
1203,1.52e+01,
1204,1.32e+01,
1205,1.56e+01,
1206,1.60e+01,
1207,1.60e+01,
1208,2.28e+01,
1209,1.60e+01,
1210,6.80e+00,
1211,1.64e+01,
1212,1.64e+01,
1213,1.64e+01,
1214,7.60e+00,
1215,1.68e+01,
1216,2.92e+01,
1217,1.68e+01,
1218,2.00e+01,
1219,1.68e+01,
1220,1.64e+01,
1221,1.68e+01,
1222,1.40e+01,
1223,1.72e+01,
1224,1.68e+01,
1225,1.72e+01,
1226,1.72e+01,
1227,1.72e+01,
1228,1.04e+01,
1229,1.72e+01,
1230,1.72e+01,
1231,1.72e+01,
1232,2.60e+01,
1233,1.72e+01,
1234,1.48e+01,
1235,1.72e+01,
1236,1.56e+01,
1237,1.68e+01,
1238,1.76e+01,
1239,1.68e+01,
1240,1.36e+01,
1241,1.68e+01,
1242,1.72e+01,
1243,1.68e+01,
1244,1.68e+01,
1245,1.68e+01,
1246,1.24e+01,
1247,1.64e+01,
1248,1.64e+01,
1249,1.64e+01,
1250,1.96e+01,
1251,1.60e+01,
1252,1.60e+01,
1253,1.60e+01,
1254,1.52e+01,
1255,1.56e+01,
1256,1.56e+01,
1257,1.56e+01,
1258,2.04e+01,
1259,1.52e+01,
1260,1.60e+01,
1261,1.48e+01,
1262,1.48e+01,
1263,1.48e+01,
1264,2.12e+01,
1265,1.44e+01,
1266,1.08e+01,
1267,1.40e+01,
1268,1.48e+01,
1269,1.36e+01,
1270,1.36e+01,
1271,1.36e+01,
1272,1.56e+01,
1273,1.32e+01,
1274,1.24e+01,
1275,1.24e+01,
1276,1.60e+01,
1277,1.20e+01,
1278,1.64e+01,
1279,1.16e+01,
1280,1.12e+01,
1281,1.12e+01,
1282,1.36e+01,
1283,1.08e+01,
1284,1.24e+01,
1285,1.04e+01,
1286,1.20e+01,
1287,1.00e+01,
1288,9.20e+00,
1289,9.20e+00,
1290,1.00e+01,
1291,8.80e+00,
1292,8.40e+00,
1293,8.40e+00,
1294,8.00e+00,
1295,7.60e+00,
1296,1.24e+01,
1297,7.20e+00,
1298,7.20e+00,
1299,6.80e+00,
1300,7.20e+00,
1301,6.40e+00,
1302,6.40e+00,
1303,6.00e+00,
1304,6.00e+00,
1305,5.20e+00,
1306,4.80e+00,
1307,4.80e+00,
1308,6.80e+00,
1309,4.40e+00,
1310,6.00e+00,
1311,3.60e+00,
1312,3.60e+00,
1313,2.80e+00,
1314,5.60e+00,
1315,2.80e+00,
1316,5.60e+00,
1317,1.60e+00,
1318,1.20e+00,
1319,1.20e+00,
1320,4.00e-01,
1321,4.00e-01,
1322,1.20e+00,
1323,-8.70e-05,
1324,-4.00e-01,
1325,-4.00e-01,
1326,-2.00e+00,
1327,-1.20e+00,
1328,-4.40e+00,
1329,-1.60e+00,
1330,-2.00e+00,
1331,-2.40e+00,
1332,-5.60e+00,
1333,-2.80e+00,
1334,-2.00e+00,
1335,-3.60e+00,
1336,-2.80e+00,
1337,-4.00e+00,
1338,-4.40e+00,
1339,-4.40e+00,
1340,-3.20e+00,
1341,-5.20e+00,
1342,-5.20e+00,
1343,-5.60e+00,
1344,-8.00e+00,
1345,-6.00e+00,
1346,-5.60e+00,
1347,-6.80e+00,
1348,-6.80e+00,
1349,-7.20e+00,
1350,-9.20e+00,
1351,-7.60e+00,
1352,-7.60e+00,
1353,-8.00e+00,
1354,-8.80e+00,
1355,-9.20e+00,
1356,-9.20e+00,
1357,-9.60e+00,
1358,-1.20e+01,
1359,-1.00e+01,
1360,-1.04e+01,
